tests/master1.vcd
$date today $end
$timescale 1 ns $end
$scope module capture $end
$var wire 1 0 tck $end
$var wire 1 1 tms $end
$var wire 1 2 tdi $end
$var wire 1 3 tdo $end
$upscope $end
$enddefinitions $end
#0
$dumpvars
00
11
02
03
$end
#1
10
#2
00
11
#3
10
#4
00
11
#5
10
#6
00
11
#7
10
#8
00
11
#9
10
#10
00
01
#11
10
#12
02
00
11
#13
10
#14
00
11
#15
10
#16
00
01
#17
10
#18
00
01
#19
10
#20
01
00
02
#21
10
#22
00
02
#23
10
#24
00
02
#25
10
#26
00
02
#27
10
#28
00
02
#29
10
#30
00
12
#31
10
#32
00
02
#33
10
#34
00
02
11
#35
10
#36
02
00
11
#37
10
#38
00
11
#39
10
#40
00
01
#41
10
#42
00
01
#43
10
#44
01
00
03
#45
10
#46
00
03
#47
10
#48
00
03
#49
10
#50
00
03
#51
10
#52
00
03
#53
10
#54
00
03
#55
10
#56
00
03
#57
10
#58
00
03
#59
10
#60
00
03
#61
10
#62
00
03
#63
10
#64
00
03
#65
10
#66
00
13
#67
10
#68
00
03
#69
10
#70
00
13
#71
10
#72
00
03
#73
10
#74
00
13
#75
10
#76
00
13
#77
10
#78
00
03
#79
10
#80
00
13
#81
10
#82
00
03
#83
10
#84
00
03
#85
10
#86
00
03
#87
10
#88
00
03
#89
10
#90
00
03
#91
10
#92
00
13
#93
10
#94
00
03
#95
10
#96
00
03
#97
10
#98
00
03
#99
10
#100
00
03
#101
10
#102
00
03
#103
10
#104
00
13
#105
10
#106
00
13
11
#107
10
#108
02
00
11
#109
10
#110
00
01
#111
10
#112
02
00
01
#113
10
#114
00
01
#115
10
#116
00
01
#117
10
#118
00
01
#119
10
#120
00
01
#121
10
